{
  "images" : [
    {
      "idiom" : "universal",
      "scale" : "1x",
      "filename" : "group3.png"
    },
    {
      "scale" : "2x",
      "filename" : "group3@2x.png",
      "idiom" : "universal"
    },
    {
      "filename" : "group3@3x.png",
      "scale" : "3x",
      "idiom" : "universal"
    }
  ],
  "info" : {
    "version" : 1,
    "author" : "xcode"
  }
}