{
  "images" : [
    {
      "idiom" : "universal",
      "filename" : "home.png",
      "scale" : "1x"
    },
    {
      "filename" : "home@2x.png",
      "scale" : "2x",
      "idiom" : "universal"
    },
    {
      "filename" : "home@3x.png",
      "scale" : "3x",
      "idiom" : "universal"
    }
  ],
  "info" : {
    "version" : 1,
    "author" : "xcode"
  }
}