{
  "images" : [
    {
      "idiom" : "universal",
      "filename" : "wrong.png",
      "scale" : "1x"
    },
    {
      "filename" : "wrong@2x.png",
      "scale" : "2x",
      "idiom" : "universal"
    },
    {
      "scale" : "3x",
      "idiom" : "universal",
      "filename" : "wrong@3x.png"
    }
  ],
  "info" : {
    "version" : 1,
    "author" : "xcode"
  }
}