{
  "info" : {
    "version" : 1,
    "author" : "xcode"
  },
  "colors" : [
    {
      "color" : {
        "color-space" : "srgb",
        "components" : {
          "green" : "0.184",
          "alpha" : "1.000",
          "blue" : "0.416",
          "red" : "0.067"
        }
      },
      "idiom" : "universal"
    }
  ]
}